{
  "id": "br.com.ebc.play",
  "version": "0.0.1",
  "vendor": "Empresa Brasil de Comunicação",
  "type": "web",
  "main": "index.html",
  "title": "EBC Play",
  "icon": "icon.png",
  "largeIcon": "ebcplay_logo.png"
}